<?xml version="1.0" encoding="iso-8859-1"?>
<!-- Generator: Adobe Illustrator 19.0.0, SVG Export Plug-In . SVG Version: 6.00 Build 0)  -->
<svg version="1.1" id="Capa_1" xmlns="http://www.w3.org/2000/svg" xmlns:xlink="http://www.w3.org/1999/xlink" x="0px" y="0px"
	 viewBox="0 0 512 512" style="enable-background:new 0 0 512 512;" xml:space="preserve">
<path style="fill:#F2EDE1;" d="M391.906,512L391.906,512L391.906,512L391.906,512l-35.128-367.767
	C348.966,62.448,280.27,0,198.112,0l0,0l0,0l0,0H35.9l47.513,48.718L4.319,83.156l46.142,16.152v0.001
	c-5.713,14.048-9.504,29.122-11.013,44.924L4.319,512l0,0l0,0l0,0l26.49-21.958l21.958-18.202L101.214,512l48.449-40.16L198.112,512
	l48.448-40.16l21.958,18.202L295.008,512l26.49-21.958l21.958-18.202L391.906,512z"/>
<path style="fill:#DBC293;" d="M35.9,0l47.513,48.718L4.319,83.156l46.139,16.151c-5.715,14.049-9.508,29.125-11.017,44.928
	L4.319,511.999l48.446-40.162l41.915,34.754l18.532-362.357c4.147-81.142,40.361-143.258,83.872-144.224
	C171.394,0.172,35.9,0,35.9,0z"/>
<path style="fill:#E58B25;" d="M311.504,272.311L311.504,272.311c0,22.737,18.432,41.169,41.169,41.169h48.579
	c24.464,0,65.227-27.018,65.227-27.018v-74.167l-145.525,37.798"/>
<path style="fill:#DBC293;" d="M313.081,117.803c10.438,0,18.898,8.461,18.898,18.898l0,0c0,10.438-8.462,18.898-18.898,18.898
	h-9.45h-132.29c-20.875,0-37.797,16.922-37.797,37.797l0,0c0,20.875,16.922,37.797,37.797,37.797h3.15h100.488
	c36.121,0,65.404-29.283,65.404-65.404l0,0V155.6v-10.496C340.383,130.027,328.159,117.803,313.081,117.803L313.081,117.803z"/>
<path style="fill:#FFCB47;" d="M356.425,143.877h40.026c61.431,0,111.23,49.799,111.23,111.23v71.247l0,0
	c-20.16-33.532-56.421-54.042-95.547-54.042H276.718c-9.673,0-17.362-8.123-16.833-17.78l0,0c0.441-8.046,6.52-14.624,14.497-15.766
	C320.814,232.117,356.489,192.149,356.425,143.877L356.425,143.877z"/>
<path style="fill:#FFFFFF;" d="M215.438,155.601c0,24.354,19.743,44.097,44.097,44.097s44.097-19.743,44.097-44.097H215.438z"/>
<path style="fill:#262B3B;" d="M303.632,155.596c0,19.089-12.127,35.342-29.095,41.474c-11.886-7.885-19.729-21.398-19.729-36.749
	c0-1.596,0.084-3.171,0.252-4.725H303.632z"/>
<path style="fill:#E58B25;" d="M369.773,217.023c-0.94,0-1.895-0.169-2.824-0.527c-4.059-1.561-6.085-6.118-4.523-10.176
	l7.875-20.473c1.56-4.058,6.113-6.087,10.176-4.523c4.059,1.561,6.085,6.118,4.523,10.176l-7.875,20.473
	C375.921,215.103,372.937,217.023,369.773,217.023z"/>
<g>
</g>
<g>
</g>
<g>
</g>
<g>
</g>
<g>
</g>
<g>
</g>
<g>
</g>
<g>
</g>
<g>
</g>
<g>
</g>
<g>
</g>
<g>
</g>
<g>
</g>
<g>
</g>
<g>
</g>
</svg>
